D:\BMRI_New_Jonfis_2018_SourceCode\telkomsigma-common-framework\src\main\java\id\co\telkomsigma\configuration\SpelConfiguration.java
D:\BMRI_New_Jonfis_2018_SourceCode\telkomsigma-common-framework\src\main\java\id\co\telkomsigma\constant\DomainServiceConstant.java
D:\BMRI_New_Jonfis_2018_SourceCode\telkomsigma-common-framework\src\main\java\id\co\telkomsigma\exceptions\SystemErrorException.java
D:\BMRI_New_Jonfis_2018_SourceCode\telkomsigma-common-framework\src\main\java\id\co\telkomsigma\BaseController.java
D:\BMRI_New_Jonfis_2018_SourceCode\telkomsigma-common-framework\src\main\java\id\co\telkomsigma\configuration\CorsFilterRequest.java
D:\BMRI_New_Jonfis_2018_SourceCode\telkomsigma-common-framework\src\main\java\id\co\telkomsigma\utils\DelimitedUtils.java
D:\BMRI_New_Jonfis_2018_SourceCode\telkomsigma-common-framework\src\main\java\id\co\telkomsigma\exceptions\DefaultExceptionAttributes.java
D:\BMRI_New_Jonfis_2018_SourceCode\telkomsigma-common-framework\src\main\java\id\co\telkomsigma\utils\FileSizeUnit.java
D:\BMRI_New_Jonfis_2018_SourceCode\telkomsigma-common-framework\src\main\java\id\co\telkomsigma\exceptions\ExceptionAttributes.java
D:\BMRI_New_Jonfis_2018_SourceCode\telkomsigma-common-framework\src\main\java\id\co\telkomsigma\utils\NumberUtil.java
D:\BMRI_New_Jonfis_2018_SourceCode\telkomsigma-common-framework\src\main\java\id\co\telkomsigma\utils\PropertiesUtil.java
D:\BMRI_New_Jonfis_2018_SourceCode\telkomsigma-common-framework\src\main\java\id\co\telkomsigma\BaseService.java
D:\BMRI_New_Jonfis_2018_SourceCode\telkomsigma-common-framework\src\main\java\id\co\telkomsigma\configuration\SwaggerConfiguration.java
D:\BMRI_New_Jonfis_2018_SourceCode\telkomsigma-common-framework\src\main\java\id\co\telkomsigma\utils\MapperUtils.java
D:\BMRI_New_Jonfis_2018_SourceCode\telkomsigma-common-framework\src\main\java\id\co\telkomsigma\configuration\FeignConfiguration.java
D:\BMRI_New_Jonfis_2018_SourceCode\telkomsigma-common-framework\src\main\java\id\co\telkomsigma\utils\ObjectMapperUtils.java
D:\BMRI_New_Jonfis_2018_SourceCode\telkomsigma-common-framework\src\main\java\id\co\telkomsigma\utils\DateUtil.java
D:\BMRI_New_Jonfis_2018_SourceCode\telkomsigma-common-framework\src\main\java\id\co\telkomsigma\constant\BussinesPartnerConstant.java
D:\BMRI_New_Jonfis_2018_SourceCode\telkomsigma-common-framework\src\main\java\id\co\telkomsigma\BaseResponse.java
D:\BMRI_New_Jonfis_2018_SourceCode\telkomsigma-common-framework\src\main\java\id\co\telkomsigma\configuration\ResourceServerConfiguration.java
D:\BMRI_New_Jonfis_2018_SourceCode\telkomsigma-common-framework\src\main\java\id\co\telkomsigma\utils\ErrorCode.java
D:\BMRI_New_Jonfis_2018_SourceCode\telkomsigma-common-framework\src\main\java\id\co\telkomsigma\utils\FilterSpec.java
D:\BMRI_New_Jonfis_2018_SourceCode\telkomsigma-common-framework\src\main\java\id\co\telkomsigma\utils\CronUtil.java
D:\BMRI_New_Jonfis_2018_SourceCode\telkomsigma-common-framework\src\main\java\id\co\telkomsigma\constant\DocumentStatusConstant.java
D:\BMRI_New_Jonfis_2018_SourceCode\telkomsigma-common-framework\src\main\java\id\co\telkomsigma\exceptions\DataNotFoundException.java
D:\BMRI_New_Jonfis_2018_SourceCode\telkomsigma-common-framework\src\main\java\id\co\telkomsigma\utils\IOUtils.java
D:\BMRI_New_Jonfis_2018_SourceCode\telkomsigma-common-framework\src\main\java\id\co\telkomsigma\configuration\JacksonToObjectMapperConfiguration.java
D:\BMRI_New_Jonfis_2018_SourceCode\telkomsigma-common-framework\src\main\java\id\co\telkomsigma\utils\JsonUtils.java
D:\BMRI_New_Jonfis_2018_SourceCode\telkomsigma-common-framework\src\main\java\id\co\telkomsigma\utils\FieldValidationUtil.java
D:\BMRI_New_Jonfis_2018_SourceCode\telkomsigma-common-framework\src\main\java\id\co\telkomsigma\configuration\HazelCastDistributedSessionConfig.java
D:\BMRI_New_Jonfis_2018_SourceCode\telkomsigma-common-framework\src\main\java\id\co\telkomsigma\exceptions\InternalServerException.java
D:\BMRI_New_Jonfis_2018_SourceCode\telkomsigma-common-framework\src\main\java\id\co\telkomsigma\http\ApiDefaultResponse.java
D:\BMRI_New_Jonfis_2018_SourceCode\telkomsigma-common-framework\src\main\java\id\co\telkomsigma\configuration\RestLogFilter.java
D:\BMRI_New_Jonfis_2018_SourceCode\telkomsigma-common-framework\src\main\java\id\co\telkomsigma\utils\QueryOperator.java
D:\BMRI_New_Jonfis_2018_SourceCode\telkomsigma-common-framework\src\main\java\id\co\telkomsigma\utils\UserUtils.java
D:\BMRI_New_Jonfis_2018_SourceCode\telkomsigma-common-framework\src\main\java\id\co\telkomsigma\configuration\GzipBodyDecompressFilter.java
D:\BMRI_New_Jonfis_2018_SourceCode\telkomsigma-common-framework\src\main\java\id\co\telkomsigma\security\JwtHazelcastTokenStore.java
D:\BMRI_New_Jonfis_2018_SourceCode\telkomsigma-common-framework\src\main\java\id\co\telkomsigma\configuration\JwtHazelcastTokenConfiguration.java
D:\BMRI_New_Jonfis_2018_SourceCode\telkomsigma-common-framework\src\main\java\id\co\telkomsigma\http\ApiErrorResponse.java
D:\BMRI_New_Jonfis_2018_SourceCode\telkomsigma-common-framework\src\main\java\id\co\telkomsigma\exceptions\GlobalExceptionHandler.java
